\relax 
\providecommand\hyper@newdestlabel[2]{}
\providecommand\HyperFirstAtBeginDocument{\AtBeginDocument}
\HyperFirstAtBeginDocument{\ifx\hyper@anchor\@undefined
\global\let\oldcontentsline\contentsline
\gdef\contentsline#1#2#3#4{\oldcontentsline{#1}{#2}{#3}}
\global\let\oldnewlabel\newlabel
\gdef\newlabel#1#2{\newlabelxx{#1}#2}
\gdef\newlabelxx#1#2#3#4#5#6{\oldnewlabel{#1}{{#2}{#3}}}
\AtEndDocument{\ifx\hyper@anchor\@undefined
\let\contentsline\oldcontentsline
\let\newlabel\oldnewlabel
\fi}
\fi}
\global\let\hyper@last\relax 
\gdef\HyperFirstAtBeginDocument#1{#1}
\providecommand\HyField@AuxAddToFields[1]{}
\providecommand\HyField@AuxAddToCoFields[2]{}
\@writefile{toc}{\contentsline {chapter}{\numberline {A}Author's publications}{1}{appendix.A}}
\@writefile{lof}{\addvspace {10\p@ }}
\@writefile{lot}{\addvspace {10\p@ }}
\@writefile{toc}{\contentsline {section}{\numberline {A.1}Publications related to the thesis}{1}{section.A.1}}
\@writefile{toc}{\contentsline {subsection}{Impacted journal papers excerpted by ISI}{1}{section*.1}}
\@writefile{toc}{\contentsline {subsection}{Conference papers excerpted by ISI}{1}{section*.2}}
\@writefile{toc}{\contentsline {subsection}{Other conference papers}{1}{section*.3}}
\@writefile{toc}{\contentsline {section}{\numberline {A.2}Other publications}{1}{section.A.2}}
\@writefile{toc}{\contentsline {subsection}{Impacted journal papers excerpted by ISI}{1}{section*.4}}
\@writefile{toc}{\contentsline {subsection}{Impacted journal papers not excerpted by ISI}{1}{section*.5}}
\@writefile{toc}{\contentsline {chapter}{\numberline {B}Citations of author's work}{2}{appendix.B}}
\@writefile{lof}{\addvspace {10\p@ }}
\@writefile{lot}{\addvspace {10\p@ }}
\global\@altsecnumformattrue
