This is BibTeX, Version 0.99d (TeX Live 2013)
Capacity: max_strings=35307, hash_size=35307, hash_prime=30011
The top-level auxiliary file: bu1.aux
The style file: apalike.bst
Database file #1: appendix/impacted_journals.bib
You've used 1 entry,
            1935 wiz_defined-function locations,
            480 strings with 3888 characters,
and the built_in function-call counts, 455 in all, are:
= -- 45
> -- 18
< -- 0
+ -- 6
- -- 6
* -- 41
:= -- 83
add.period$ -- 4
call.type$ -- 1
change.case$ -- 8
chr.to.int$ -- 1
cite$ -- 1
duplicate$ -- 14
empty$ -- 31
format.name$ -- 7
if$ -- 85
int.to.chr$ -- 1
int.to.str$ -- 0
missing$ -- 1
newline$ -- 9
num.names$ -- 3
pop$ -- 5
preamble$ -- 1
purify$ -- 8
quote$ -- 0
skip$ -- 11
stack$ -- 0
substring$ -- 37
swap$ -- 1
text.length$ -- 0
text.prefix$ -- 0
top$ -- 0
type$ -- 6
warning$ -- 0
while$ -- 4
width$ -- 0
write$ -- 17
