\begin{thebibliography}{}

\bibitem[Antoniuk et~al., 2012]{Antoniuk-Franc-Hlavac-ICPR-2012-a}
Antoniuk, K., Franc, V., and Hlav{\'a}{\v c}, V. (2012).
\newblock Learning markov networks by analytic center cutting plane method.
\newblock In {\em Proceedings of the International Conference on Pattern
  Recognition (ICPR)}, pages 2250--2253.
\newblock [45\%].

\bibitem[Antoniuk et~al., 2013]{Antoniuk-Franc-Hlavac-MORD2013-a}
Antoniuk, K., Franc, V., and Hlavac, V. (2013).
\newblock Mord: Multi-class classifier for ordinal regression.
\newblock In {\em Proceedings of the European Conference on Machine Learning
  and Principles and Practice of Knowledge Discovery in Databases (ECML/PKDD)},
  pages 96--111.
\newblock [45\%].

\bibitem[Antoniuk et~al., 2014]{Antoniuk-Franc-Hlavac-OrdRegIntervalLoss-a}
Antoniuk, K., Franc, V., and Hlavac, V. (2014).
\newblock Interval insensitive loss for ordinal classification.
\newblock In {\em Proceedings of the Asian Conference on Machine Learning
  (ACML)}, pages 189--204.
\newblock [45\%].

\bibitem[Antoniuk et~al., 2015]{Antoniuk-Franc-Hlavac-ACML-2015-a}
Antoniuk, K., Franc, V., and Hlav{\'a}{\v c}, V. (2015).
\newblock Consistency of structured output learning with missing labels.
\newblock In {\em Proceedings of the Asian Conference on Machine Learning
  (ACML)}, pages 81 -- 95.
\newblock [55\%].

\end{thebibliography}
