This is BibTeX, Version 0.99d (TeX Live 2013)
Capacity: max_strings=35307, hash_size=35307, hash_prime=30011
The top-level auxiliary file: bu5.aux
The style file: apalike.bst
Database file #1: appendix/other_nonisi_publications.bib
Warning--there's a number but no volume in Schlesinger-CSC2011-LabelingProblems
You've used 1 entry,
            1935 wiz_defined-function locations,
            480 strings with 3982 characters,
and the built_in function-call counts, 430 in all, are:
= -- 41
> -- 18
< -- 0
+ -- 6
- -- 6
* -- 40
:= -- 79
add.period$ -- 3
call.type$ -- 1
change.case$ -- 8
chr.to.int$ -- 1
cite$ -- 2
duplicate$ -- 14
empty$ -- 29
format.name$ -- 7
if$ -- 79
int.to.chr$ -- 1
int.to.str$ -- 0
missing$ -- 1
newline$ -- 8
num.names$ -- 3
pop$ -- 7
preamble$ -- 1
purify$ -- 8
quote$ -- 0
skip$ -- 9
stack$ -- 0
substring$ -- 31
swap$ -- 1
text.length$ -- 0
text.prefix$ -- 0
top$ -- 0
type$ -- 6
warning$ -- 1
while$ -- 4
width$ -- 0
write$ -- 15
(There was 1 warning)
