\begin{thebibliography}{}

\bibitem[Schlesinger et~al., 2011]{Schlesinger-CSC2011-LabelingProblems}
Schlesinger, M.~I., Antoniuk, K.~V., and Vodolazskii, E.~V. (2011).
\newblock Optimal labelling problems, their relaxation and equivalent
  transformations.
\newblock {\em Control Systems and Computers}, (2):55--70.

\end{thebibliography}
