\citation{*}
\bibstyle{apalike}
\bibdata{appendix/isi_publications.bib}
\bibcite{Antoniuk-Franc-Hlavac-ICPR-2012}{{1}{2012}{{Antoniuk et~al.}}{{}}}
\bibcite{Antoniuk-Franc-Hlavac-MORD2013}{{2}{2013}{{Antoniuk et~al.}}{{}}}
\bibcite{Antoniuk-Franc-Hlavac-OrdRegIntervalLoss}{{3}{2014}{{Antoniuk et~al.}}{{}}}
\bibcite{Antoniuk-Franc-Hlavac-ACML-2015}{{4}{2015}{{Antoniuk et~al.}}{{}}}
